{
    "category":[
        {
            "categoryName": "Framework / Library"
        },
        {
            "categoryName": "Bahasa Pemrograman"
        },
        {
            "categoryName": "Teknologi"
        }
    ]
}